{
    "name": "BackendAssembly",
    "rootNamespace": "",
    "references": [
        "GUID:1f9207690a3aa275a98f89617cad4076"
    ],
    "includePlatforms": [],
    "excludePlatforms": [],
    "allowUnsafeCode": false,
    "overrideReferences": false,
    "precompiledReferences": [],
    "autoReferenced": true,
    "defineConstraints": [],
    "versionDefines": [],
    "noEngineReferences": false
}